<?xml version="1.0" encoding="UTF-8" standalone="no"?>
<svg
   fill="#000000"
   viewBox="0 0 51.2 51.2"
   width="256"
   height="256"
   version="1.1"
   id="svg4"
   sodipodi:docname="disneyplus.svg"
   inkscape:version="1.2.2 (b0a8486541, 2022-12-01)"
   xmlns:inkscape="http://www.inkscape.org/namespaces/inkscape"
   xmlns:sodipodi="http://sodipodi.sourceforge.net/DTD/sodipodi-0.dtd"
   xmlns:xlink="http://www.w3.org/1999/xlink"
   xmlns="http://www.w3.org/2000/svg"
   xmlns:svg="http://www.w3.org/2000/svg">
  <defs
     id="defs8">
    <linearGradient
       inkscape:collect="always"
       id="linearGradient15056">
      <stop
         style="stop-color:#071240;stop-opacity:1;"
         offset="0.17294233"
         id="stop15052" />
      <stop
         style="stop-color:#175ec3;stop-opacity:1;"
         offset="1"
         id="stop15054" />
    </linearGradient>
    <linearGradient
       inkscape:collect="always"
       xlink:href="#linearGradient15056"
       id="linearGradient15058"
       x1="24.554029"
       y1="0.47520596"
       x2="24.90181"
       y2="50.634876"
       gradientUnits="userSpaceOnUse"
       gradientTransform="matrix(1.0002768,0,0,0.99916259,-0.06761193,-0.12448271)" />
  </defs>
  <sodipodi:namedview
     id="namedview6"
     pagecolor="#ffffff"
     bordercolor="#666666"
     borderopacity="1.0"
     inkscape:pageshadow="2"
     inkscape:pageopacity="0.0"
     inkscape:pagecheckerboard="true"
     showgrid="false"
     inkscape:zoom="1.2462381"
     inkscape:cx="56.169043"
     inkscape:cy="43.731612"
     inkscape:window-width="1920"
     inkscape:window-height="919"
     inkscape:window-x="0"
     inkscape:window-y="32"
     inkscape:window-maximized="1"
     inkscape:current-layer="layer3"
     inkscape:showpageshadow="2"
     inkscape:deskcolor="#d1d1d1" />
  <g
     inkscape:groupmode="layer"
     id="layer1"
     inkscape:label="Box">
    <path
       id="rect15048"
       style="fill:url(#linearGradient15058);fill-opacity:1;stroke:#000000;stroke-width:0;stroke-miterlimit:0"
       d="M 4.9888913,21.755504 H 44.428244 V 38.161641 H 4.9888913 Z M 2.9092026,10.590409 H 48.110852 V 40.970463 H 2.9092026 Z m 16.5841414,15.29166 c 0,0 0.685146,-1.069293 1.883547,-1.539391 1.198398,-0.470098 0.813156,0.684443 0.171896,1.15454 -0.643698,0.4701 -1.286177,0.599194 -2.055443,0.384851 z M 20.1346,23.956611 c -1.113058,0.214346 -1.455632,0.812322 -1.327624,1.45414 0.171895,-0.512725 1.327624,-1.452921 1.327624,-1.45414 z m 17.383502,5.177173 c -0.471801,0.427473 -1.412966,1.968077 -1.412966,1.968077 0,0 1.455636,-0.171717 1.884769,-1.326257 0.426692,-1.155762 -0.0012,-1.069294 -0.471803,-0.64182 z m -29.7137275,1.15454 c 0.813156,0.72707 2.2687895,1.326262 2.2687895,1.326262 l 0.08534,-2.736553 c -0.6412595,0 -2.1395611,0.384846 -2.5260241,0.470097 -0.3852436,0.08403 -0.6424788,0.213127 0.1718966,0.940194 z M 51.20765,11.009418 v 29.228921 c 0,6.044294 -4.92282,10.960843 -10.972117,10.960843 H 10.976536 c -6.0492968,0 -10.97212228,-4.916549 -10.97212228,-10.960843 V 11.009418 c 0,-6.0442951 4.92282548,-10.96084224 10.97212228,-10.96084224 h 29.258997 c 6.049297,0 10.972117,4.91654714 10.972117,10.96084224 z m -39.571566,10.880465 0.697338,0.271587 c 0.08901,0.0073 0.174334,-0.03532 0.221881,-0.110826 2.863723,-4.557275 8.025499,-7.619002 13.966294,-7.619002 7.068484,0 13.054388,4.325879 15.334151,10.361649 0.03535,0.09256 0.121912,0.15467 0.221882,0.15467 h 0.726597 c 0.08532,0 0.146294,-0.08648 0.118255,-0.166847 -2.321214,-6.57407 -8.798425,-11.318897 -16.40942,-11.318897 -6.356517,0 -11.930355,3.317481 -14.973289,8.237682 -0.04999,0.07796 0.0049,0.181465 0.09632,0.189986 z m 2.889324,2.324916 c -3.42574,-1.668482 -4.6241401,-1.882827 -7.2793921,-1.711106 -2.6540355,0.171719 -2.6540355,1.496763 -2.012775,1.540607 0.3791469,0.02556 0.5937133,0.0536 0.7070917,0.06697 0.095087,0.01102 0.1085,-0.01339 0.1401998,-0.05603 0.026827,-0.03653 0.03901,-0.09133 0.052424,-0.124223 0.023157,-0.05968 -0.0037,-0.120568 -0.057306,-0.143705 -0.054865,-0.02436 -0.6705187,-0.298382 -0.6705187,-0.298382 0,0 3.3403996,-0.854946 7.4927393,1.154543 4.15234,2.009489 5.223949,4.619387 4.068218,5.903024 -1.155729,1.283637 -3.168504,1.925453 -5.651861,1.368888 -0.04267,-1.753737 0.04267,-3.037371 0.04267,-3.037371 0,0 2.312679,-0.08525 2.912488,0.342221 0.512034,0.365362 0.212129,0.605281 -0.125571,0.747772 -0.0573,0.02436 -0.06339,0.130313 -0.01092,0.160759 0.479115,0.265496 0.860702,0.327608 1.206935,-0.095 0.385244,-0.470099 0.813155,-2.480805 -3.896323,-2.352927 -0.08534,-0.812321 0.171895,-1.368887 -0.513252,-2.181209 -0.68515,-0.815975 -0.68515,2.221397 -0.68515,2.221397 0,0 -1.7555366,0.255753 -3.2111724,1.283637 -1.4556349,1.026665 2.9966074,3.50747 2.9966074,3.50747 0,0 0.08533,1.111916 0.727817,1.241013 0.64248,0.127875 0.599812,-0.812321 0.599812,-0.812321 0,0 3.852433,1.111915 6.423568,-1.154543 2.567477,-2.268894 0.169457,-5.90424 -3.256284,-7.571508 z m 4.66803,2.436961 c 0.685147,0.300814 2.011555,0.08648 2.8686,-0.769691 0.855825,-0.854948 1.242288,-2.438181 -0.256015,-2.352931 0,0 -0.557142,-0.727068 -1.755541,-0.384847 -1.1984,0.342223 -2.696704,1.925456 -1.62631,2.950903 -0.0012,0.470099 0.128005,1.368888 0.769266,0.556566 z m 1.198399,5.432926 c 0,-0.641818 -0.04266,-3.207872 -0.129227,-3.721813 -0.08533,-0.512725 -0.555921,-0.941417 -0.813155,-0.427476 0,0 -0.214566,2.480807 -0.129228,4.020194 0.04387,0.643038 1.07161,0.769696 1.07161,0.129095 z m 2.35413,-3.379593 c 0.898495,-0.08525 1.542193,-0.129094 2.31268,-0.255752 0.770486,-0.127878 0.813156,-0.684445 0.213346,-0.812322 0,0 -2.355349,-0.512723 -3.938992,0.512724 -0.770485,0.512726 -0.557139,1.454139 -0.129225,1.496765 0.42791,0.04263 2.611363,0.129096 3.125834,0.470098 0.513253,0.342222 0.64248,0.599191 0.08534,0.941414 -0.55714,0.342223 -1.798209,0.512727 -2.31268,0.342223 -0.513252,-0.171719 -0.685148,-1.069292 0.256016,-0.599195 0.942385,0.470101 2.654036,-0.08524 1.498307,-0.470097 -1.155732,-0.384847 -2.096895,-0.298377 -2.696707,0.129096 -0.599809,0.427472 0.214568,1.326261 0.898497,1.624639 0.685145,0.29838 1.970105,0.384848 2.740591,-0.08525 0.770487,-0.470097 1.155731,-2.26646 -0.08533,-2.566055 -1.242288,-0.298377 -2.012776,-0.255753 -2.568698,-0.342222 -0.554698,-0.08648 -0.297465,-0.299598 0.60103,-0.386066 z m 6.252892,-1.451701 c -1.327628,-1.540609 -0.643699,0.639382 -0.557141,1.024229 0.08533,0.384848 0.427913,1.838985 0.427913,2.438176 -0.427913,-0.641816 -1.11306,-1.925453 -1.71287,-2.523426 -0.59981,-0.599193 -0.770486,-0.08524 -0.770486,-0.08524 0,0 -0.599811,2.181205 -0.427915,3.592719 0.171899,1.411515 0.898497,0.427474 0.942383,0 0.04266,-0.427471 0.129229,-1.838984 0.129229,-2.22383 0.385244,0.854943 0.985052,1.838982 1.455636,2.310299 0.470581,0.4701 0.942382,0.17172 1.113059,-0.255753 0.170679,-0.427473 0.727818,-2.737775 -0.599808,-4.277163 z m 4.58025,4.35876 c 0.470582,-0.384847 -0.08656,-0.768478 -0.557139,-0.724633 -0.470582,0.04263 -1.840878,0.255753 -1.840878,0.255753 l 0.298687,-0.897573 c 0,0 0.898495,0.04263 1.626311,-0.04263 0.727817,-0.08523 0.214566,-0.897572 -0.04266,-0.897572 -0.256014,0 -1.198399,0 -1.198399,0 L 32.0796,28.7063 c 0,0 1.583644,-0.04263 2.096896,-0.129094 0.513251,-0.08523 -0.298687,-0.941415 -0.898495,-0.984039 -0.59981,-0.04263 -1.884767,0.129093 -2.740592,0.298377 -0.855827,0.17172 0.557138,0.81232 0.557138,0.81232 0,0 -0.129226,0.427474 -0.298685,0.72707 -0.513254,0.08525 -0.470581,0.384846 -0.298685,0.769695 -0.342574,0.897572 -0.513253,2.010704 0.470581,2.352927 0.985053,0.341004 2.140783,-0.557784 2.611366,-0.941415 z m 5.225171,-2.478368 c 0.128008,-1.797578 -1.499526,-1.411514 -2.142003,-0.769695 -0.642478,0.641819 -1.75554,2.310302 -1.75554,2.310302 0.129228,-1.111915 0.427913,-1.411512 1.113062,-2.523431 0.58518,-0.949938 -0.342574,-0.599191 -0.342574,-0.599191 0,0 -2.183454,1.838985 -1.242289,3.934943 -0.642478,1.582016 -1.670202,3.848473 -0.171897,5.046858 0.385244,0.255754 0.256017,-0.512722 0.385244,-0.941413 0.129228,-0.427473 0.55714,-2.608681 0.985053,-3.207874 1.030161,-0.08523 2.871038,-0.470098 3.170944,-3.250499 z m 7.531751,-0.116916 c 0.004,-0.07673 -0.06097,-0.140054 -0.140199,-0.140054 h -2.57723 c -0.05363,-0.851293 -0.156048,-1.759823 -0.343792,-2.613554 -0.01091,-0.04748 -0.04999,-0.08525 -0.09876,-0.0889 -0.349887,0 -0.403529,0.0024 -0.732695,0.0024 -0.09508,0.0024 -0.159703,0.09134 -0.13532,0.181463 0.107287,0.393373 0.263331,1.3969 0.314532,2.517341 h -2.447996 c -0.07557,0 -0.13898,0.06213 -0.142637,0.136402 l -0.06461,0.647906 c -0.0049,0.103514 0.08412,0.188773 0.187746,0.177811 l 2.496765,0.0085 c 0.01461,0.918277 0.02195,1.46997 -0.05608,2.440614 -0.0098,0.06455 0.04023,0.119352 0.106073,0.123005 0.392557,0.02436 0.641258,0.05481 0.788772,0.05723 0.05976,0.0013 0.108501,-0.04384 0.113383,-0.103525 0.02316,-0.311777 0.08289,-1.290944 0.05365,-2.513687 l 2.535783,0.0085 c 0.07925,0 0.142641,-0.06455 0.142641,-0.143709 v -0.697795 z" />
  </g>
  <g
     inkscape:groupmode="layer"
     id="layer3"
     inkscape:label="Logo"
     style="fill:#ffffff"
     transform="matrix(1.1781157,0,0,1.082475,-4.5443063,-1.7402192)">
    <path
       id="Logo-7"
       style="display:inline;fill:#ffffff;fill-opacity:1;stroke-width:1.21892;stroke-dasharray:none"
       inkscape:label="box"
       inkscape:transform-center-x="-0.93998124"
       inkscape:transform-center-y="-0.52801185"
       d="m 32.98125,27.823047 c -0.65929,0.0066 -1.736519,0.156442 -2.485156,0.304687 -0.855587,0.171863 0.557031,0.813282 0.557031,0.813282 0,0 -0.129028,0.427499 -0.298437,0.727343 -0.513112,0.08532 -0.470675,0.385533 -0.298829,0.770704 -0.342476,0.898322 -0.512856,2.012178 0.470704,2.354687 0.984778,0.341289 2.140095,-0.558236 2.610546,-0.942188 0.470451,-0.385168 -0.08659,-0.76927 -0.557031,-0.72539 -0.470448,0.04267 -1.840234,0.25625 -1.840234,0.25625 l 0.298437,-0.898438 c 0,0 0.898169,0.04276 1.625781,-0.04258 0.727615,-0.0853 0.21457,-0.898437 -0.04258,-0.898437 h -1.198046 l 0.214453,-0.59961 c 0,0 1.583377,-0.04276 2.096484,-0.129296 0.513107,-0.0853 -0.298796,-0.942107 -0.898438,-0.984766 -0.07496,-0.0053 -0.160502,-0.0072 -0.254687,-0.0063 z" />
    <path
       id="path14682"
       style="display:inline;fill:#ffffff;fill-opacity:1;stroke-width:1.21892;stroke-dasharray:none"
       inkscape:label="box"
       inkscape:transform-center-x="-0.93998124"
       inkscape:transform-center-y="-0.52801185"
       d="m 35.962891,27.724609 c -0.15073,-0.004 -0.328125,0.06328 -0.328125,0.06328 0,0 -2.183089,1.84057 -1.242188,3.938281 -0.642298,1.583338 -1.669761,3.851393 -0.171875,5.050781 0.385138,0.255968 0.255965,-0.513138 0.385156,-0.942187 0.129191,-0.427831 0.556972,-2.610854 0.984766,-3.210547 1.029874,-0.0853 2.87049,-0.4704 3.170313,-3.253125 0.127971,-1.79908 -1.499107,-1.412668 -2.141407,-0.770313 -0.642298,0.642357 -1.755078,2.31211 -1.755078,2.31211 0.129192,-1.112844 0.427543,-1.412543 1.1125,-2.525391 0.329073,-0.534787 0.179731,-0.657716 -0.01406,-0.662891 z m 2.016797,1.354688 c 0.173445,0.0056 0.217147,0.256604 -0.03281,0.934375 -0.429012,1.155505 -1.884375,1.327344 -1.884375,1.327344 0,0 0.940831,-1.542092 1.4125,-1.969922 0.176427,-0.160437 0.346742,-0.272961 0.468359,-0.289844 0.01267,-0.0018 0.02477,-0.0023 0.03633,-0.002 z" />
    <path
       id="path14680"
       style="display:inline;fill:#ffffff;fill-opacity:1;stroke-width:1.21892;stroke-dasharray:none"
       inkscape:label="box"
       inkscape:transform-center-x="-0.93998124"
       inkscape:transform-center-y="-0.52801185"
       d="m 28.298828,26.944531 c -0.363579,-0.0188 0.03744,1.281046 0.102344,1.569922 0.08531,0.38517 0.427734,1.84015 0.427734,2.439844 -0.427791,-0.642351 -1.112856,-1.926917 -1.7125,-2.525391 -0.599641,-0.599692 -0.770312,-0.08516 -0.770312,-0.08516 0,0 -0.599582,2.183012 -0.427735,3.595703 0.17185,1.412695 0.898314,0.427832 0.942188,0 0.04264,-0.427828 0.129297,-1.840614 0.129297,-2.225781 0.385135,0.855658 0.984625,1.8404 1.455078,2.312109 0.470449,0.470494 0.942262,0.171969 1.112891,-0.255859 0.170629,-0.427831 0.727646,-2.740187 -0.59961,-4.280859 -0.331814,-0.385475 -0.538182,-0.538266 -0.659375,-0.544532 z" />
    <path
       id="path14696"
       style="display:inline;fill:#ffffff;fill-opacity:1;stroke-width:1.21892;stroke-dasharray:none"
       inkscape:label="box"
       inkscape:transform-center-x="-0.93998124"
       inkscape:transform-center-y="-0.52801185"
       d="m 43.13125,26.409375 c -0.34979,0 -0.403348,0.0023 -0.732422,0.0023 -0.09506,0.0024 -0.159532,0.09144 -0.135156,0.18164 0.107258,0.393703 0.263266,1.398154 0.314453,2.519532 h -2.447266 c -0.07555,0 -0.138922,0.06199 -0.142578,0.136328 l -0.06484,0.648437 c -0.0049,0.1036 0.0843,0.189095 0.18789,0.178125 l 2.496094,0.0082 c 0.01461,0.919043 0.02176,1.471514 -0.05625,2.442969 -0.0098,0.0646 0.04043,0.11939 0.10625,0.123047 0.392447,0.02438 0.640808,0.05461 0.788281,0.05703 0.05974,0.0013 0.108791,-0.04378 0.113672,-0.103515 0.02315,-0.312038 0.08275,-1.291864 0.05352,-2.515625 l 2.535156,0.0082 c 0.07923,0 0.142578,-0.06452 0.142578,-0.14375 v -0.698047 c 0.0035,-0.07661 -0.06116,-0.140234 -0.140234,-0.140234 h -2.576563 c -0.05362,-0.852007 -0.156058,-1.761573 -0.34375,-2.616016 -0.01091,-0.04752 -0.05007,-0.08502 -0.09883,-0.08867 z" />
    <path
       id="path14676"
       style="display:inline;fill:#ffffff;fill-opacity:1;stroke-width:1.21892;stroke-dasharray:none"
       inkscape:label="box"
       inkscape:transform-center-x="-0.93998124"
       inkscape:transform-center-y="-0.52801185"
       d="m 26.473047,13.686328 c -6.354746,0 -11.927054,3.320217 -14.969141,8.244531 -0.04997,0.07802 0.0047,0.181706 0.09609,0.190235 l 0.697266,0.271875 c 0.08898,0.0073 0.174342,-0.03537 0.221875,-0.110938 2.862925,-4.561084 8.023362,-7.62539 13.9625,-7.62539 7.066514,0 13.05056,4.329495 15.329687,10.370312 0.03534,0.09263 0.121933,0.154688 0.221875,0.154688 h 0.726563 c 0.0853,0 0.145998,-0.08636 0.117968,-0.166797 C 40.557171,18.435277 34.081919,13.686328 26.473047,13.686328 Z" />
    <path
       id="path14723"
       style="display:inline;fill:#ffffff;fill-opacity:1;stroke-width:1.21892;stroke-dasharray:none"
       inkscape:label="box"
       inkscape:transform-center-x="-0.93998124"
       inkscape:transform-center-y="-0.52801185"
       d="m 23.89375,27.385938 c -0.786572,0 -1.7709,0.128254 -2.5625,0.641406 -0.770269,0.513153 -0.55709,1.455385 -0.129297,1.498047 0.427791,0.04267 2.610673,0.129025 3.125,0.470312 0.513109,0.342508 0.642129,0.599678 0.08516,0.942188 -0.556985,0.342508 -1.797782,0.513225 -2.312109,0.342578 -0.513107,-0.171862 -0.68465,-1.0701 0.25625,-0.59961 0.942121,0.470492 2.653061,-0.08552 1.497656,-0.470703 -1.155409,-0.385169 -2.096059,-0.298534 -2.695703,0.129297 -0.599641,0.427827 0.21431,1.327546 0.898047,1.626172 0.684955,0.29863 1.969574,0.38495 2.739844,-0.08555 0.770271,-0.470491 1.15557,-2.268125 -0.08516,-2.567969 -1.241941,-0.298626 -2.012203,-0.256036 -2.567969,-0.342578 -0.554542,-0.08655 -0.297461,-0.299789 0.600781,-0.386328 0.898244,-0.08532 1.541837,-0.129488 2.312109,-0.25625 0.77027,-0.127985 0.812923,-0.684907 0.213282,-0.81289 0,0 -0.588818,-0.128125 -1.375391,-0.128125 z" />
    <path
       id="path15029"
       style="display:inline;fill:#ffffff;fill-opacity:1;stroke-width:1.21892;stroke-dasharray:none"
       inkscape:label="box"
       inkscape:transform-center-x="-0.93998124"
       inkscape:transform-center-y="-0.52801185"
       d="m 20.655859,22.926172 c -0.180111,8.24e-4 -0.382394,0.02719 -0.607031,0.09141 -1.19806,0.342509 -2.695871,1.927216 -1.625781,2.953516 -0.0012,0.470487 0.128063,1.370029 0.76914,0.557031 0.684956,0.301067 2.010774,0.08657 2.867579,-0.770313 0.855582,-0.855657 1.242019,-2.4404 -0.25586,-2.355078 0,0 -0.367546,-0.480132 -1.148047,-0.476562 z M 20.273047,23.95 c 0,1.5e-4 -0.01807,0.01495 -0.05,0.0418 -0.01597,0.01343 -0.03543,0.02973 -0.05781,0.04883 -0.02238,0.0191 -0.04764,0.04113 -0.07539,0.06523 -0.02775,0.0241 -0.05815,0.05047 -0.09023,0.07891 -0.03208,0.02844 -0.0662,0.0589 -0.101562,0.09101 -0.03536,0.03211 -0.07177,0.06567 -0.109375,0.100782 -0.0376,0.03511 -0.07605,0.07154 -0.114844,0.108984 -0.0194,0.01872 -0.03909,0.03785 -0.05859,0.05703 -0.0195,0.01918 -0.03912,0.03865 -0.05859,0.0582 -0.01947,0.01956 -0.03889,0.03914 -0.0582,0.05898 -0.01931,0.01985 -0.0384,0.03971 -0.05742,0.05976 -0.01902,0.02005 -0.03765,0.04037 -0.05625,0.06055 -0.0186,0.02018 -0.03703,0.04033 -0.05508,0.06055 -0.01805,0.02022 -0.03576,0.04037 -0.05313,0.06055 -0.01737,0.02018 -0.03461,0.04049 -0.05117,0.06055 -0.01656,0.02005 -0.03282,0.03992 -0.04844,0.05977 -0.01562,0.01984 -0.03037,0.03944 -0.04492,0.05898 -0.01455,0.01955 -0.02884,0.03903 -0.04219,0.0582 -0.01334,0.01917 -0.02588,0.03832 -0.03789,0.05703 -0.01201,0.01871 -0.02344,0.03691 -0.03398,0.05508 -0.0053,0.0091 -0.01035,0.01841 -0.01524,0.02734 -0.0049,0.0089 -0.0096,0.01779 -0.01406,0.02656 -0.0045,0.0088 -0.0084,0.01718 -0.0125,0.02578 -0.0041,0.0086 -0.0081,0.01737 -0.01172,0.02578 -0.0036,0.0084 -0.007,0.01639 -0.01016,0.02461 -0.0032,0.0082 -0.0059,0.01659 -0.0086,0.02461 -0.004,-0.02007 -0.0079,-0.04018 -0.01094,-0.06016 -0.0031,-0.01998 -0.0057,-0.03991 -0.0078,-0.05977 -0.0021,-0.01986 -0.0035,-0.03965 -0.0047,-0.05938 -0.0012,-0.01972 -0.0018,-0.03942 -0.002,-0.05898 -8.9e-5,-0.0098 -1.61e-4,-0.01956 0,-0.0293 1.57e-4,-0.0097 3.68e-4,-0.01921 7.81e-4,-0.02891 4.12e-4,-0.0097 8.96e-4,-0.01966 0.0016,-0.0293 6.66e-4,-0.0096 0.0014,-0.01931 0.0023,-0.02891 9.22e-4,-0.0096 0.0023,-0.01898 0.0035,-0.02852 0.0012,-0.0095 0.0025,-0.01903 0.0039,-0.02852 0.0014,-0.0095 0.003,-0.01909 0.0047,-0.02852 0.0017,-0.0094 0.0035,-0.01876 0.0055,-0.02812 0.002,-0.0094 0.004,-0.01883 0.0062,-0.02812 0.0022,-0.0093 0.0045,-0.0185 0.007,-0.02773 0.0025,-0.0092 0.005,-0.01818 0.0078,-0.02734 0.0028,-0.0092 0.0059,-0.01826 0.009,-0.02734 0.0031,-0.0091 0.006,-0.01833 0.0094,-0.02734 0.0033,-0.009 0.0069,-0.01802 0.01055,-0.02695 0.0036,-0.0089 0.0074,-0.0177 0.01133,-0.02656 0.0039,-0.0089 0.0079,-0.01779 0.01211,-0.02656 0.0042,-0.0088 0.0084,-0.01748 0.01289,-0.02617 0.0045,-0.0087 0.0089,-0.01718 0.01367,-0.02578 0.0047,-0.0086 0.0098,-0.01727 0.01484,-0.02578 0.005,-0.0085 0.01029,-0.01697 0.01563,-0.02539 0.0053,-0.0084 0.01078,-0.01667 0.01641,-0.025 0.0056,-0.0083 0.01127,-0.01677 0.01719,-0.025 0.0059,-0.0082 0.01214,-0.01648 0.01836,-0.02461 0.0062,-0.0081 0.01262,-0.0162 0.01914,-0.02422 0.0065,-0.008 0.0131,-0.01591 0.01992,-0.02383 0.0068,-0.0079 0.01357,-0.01563 0.0207,-0.02344 0.0071,-0.0078 0.01443,-0.01574 0.02188,-0.02344 0.0074,-0.0077 0.01529,-0.01546 0.02305,-0.02305 0.0078,-0.0076 0.01537,-0.01519 0.02344,-0.02266 0.0081,-0.0075 0.01662,-0.01452 0.025,-0.02187 0.0084,-0.0073 0.01669,-0.01465 0.02539,-0.02188 0.0087,-0.0072 0.01754,-0.01438 0.02656,-0.02148 0.009,-0.0071 0.01839,-0.01451 0.02773,-0.02148 0.0093,-0.007 0.01885,-0.01385 0.02851,-0.0207 0.0097,-0.0068 0.0193,-0.01359 0.0293,-0.02031 0.01,-0.0067 0.02015,-0.01334 0.03047,-0.01992 0.01032,-0.0066 0.02099,-0.01309 0.03164,-0.01953 0.01065,-0.0064 0.02143,-0.01283 0.03242,-0.01914 0.01099,-0.0063 0.02227,-0.01258 0.03359,-0.01875 0.01132,-0.0062 0.02271,-0.01234 0.03438,-0.01836 0.01166,-0.006 0.02354,-0.01171 0.03555,-0.01758 0.012,-0.0059 0.02398,-0.01186 0.03633,-0.01758 0.01235,-0.0057 0.02481,-0.01123 0.0375,-0.0168 0.01269,-0.0056 0.02563,-0.01099 0.03867,-0.01641 0.01304,-0.0054 0.02646,-0.01076 0.03984,-0.01601 0.01339,-0.0053 0.02688,-0.01053 0.04062,-0.01563 0.01374,-0.0051 0.0277,-0.0103 0.0418,-0.01524 0.01409,-0.0049 0.02813,-0.0097 0.04258,-0.01445 0.01445,-0.0048 0.02933,-0.0095 0.04414,-0.01406 0.01481,-0.0046 0.02975,-0.0092 0.04492,-0.01367 0.01517,-0.0044 0.03056,-0.0086 0.04609,-0.01289 0.01553,-0.0043 0.03097,-0.0084 0.04687,-0.0125 0.0159,-0.0041 0.03217,-0.0082 0.04844,-0.01211 0.01627,-0.0039 0.03258,-0.0076 0.04922,-0.01133 0.01664,-0.0037 0.03377,-0.0074 0.05078,-0.01094 0.01701,-0.0035 0.03418,-0.0068 0.05156,-0.01016 z m 1.692578,0.276172 c 0.0097,-2.48e-4 0.01892,-1.87e-4 0.02812,0 0.0092,2.15e-4 0.01815,5.61e-4 0.02695,0.0012 0.0087,6e-4 0.01748,0.0013 0.02578,0.0023 0.0083,9.98e-4 0.01642,0.0021 0.02422,0.0035 0.0078,0.0014 0.01526,0.0033 0.02266,0.0051 0.0074,0.0019 0.01459,0.0037 0.02149,0.0059 0.0069,0.0022 0.01381,0.0048 0.02031,0.0074 0.0065,0.0026 0.01265,0.0053 0.01875,0.0082 0.0061,0.003 0.01198,0.0061 0.01758,0.0094 0.0056,0.0033 0.01121,0.0066 0.01641,0.01016 0.0052,0.0036 0.01004,0.0074 0.01484,0.01133 0.0048,0.0039 0.0097,0.0082 0.01406,0.0125 0.0044,0.0043 0.0085,0.0087 0.0125,0.01328 0.004,0.0046 0.0077,0.0092 0.01133,0.01406 0.0036,0.0049 0.007,0.01003 0.01016,0.01523 0.0032,0.0052 0.0062,0.01022 0.009,0.01563 0.0028,0.0054 0.0054,0.0111 0.0078,0.0168 0.0024,0.0057 0.0049,0.01158 0.007,0.01758 0.0021,0.0059 0.0038,0.01177 0.0055,0.01797 0.0017,0.0062 0.0033,0.01274 0.0047,0.01914 0.0013,0.0064 0.0025,0.01283 0.0035,0.01953 0.001,0.0067 0.0017,0.01341 0.0023,0.02031 6.86e-4,0.0069 0.0013,0.01399 0.0016,0.02109 3.06e-4,0.0071 4.17e-4,0.01418 3.9e-4,0.02148 -2.7e-5,0.0073 -3.6e-5,0.01448 -3.9e-4,0.02188 -4e-4,0.0074 -8.83e-4,0.01506 -0.0016,0.02266 -6e-4,0.0076 -0.0017,0.01525 -0.0027,0.02305 -10e-4,0.0078 -0.0022,0.01554 -0.0035,0.02344 -0.0013,0.0079 -0.0027,0.01573 -0.0043,0.02383 -0.0016,0.008 -0.0032,0.01641 -0.0051,0.02461 -0.0019,0.0082 -0.004,0.01631 -0.0062,0.02461 -0.0022,0.0083 -0.0045,0.0166 -0.007,0.025 -0.0025,0.0084 -0.005,0.01684 -0.0078,0.02539 -0.0028,0.0085 -0.0059,0.0172 -0.009,0.02578 -0.003,0.0086 -0.0061,0.01722 -0.0094,0.02578 -0.0033,0.0086 -0.0069,0.01706 -0.01055,0.02578 -0.0036,0.0087 -0.0072,0.01737 -0.01094,0.02617 -0.0037,0.0088 -0.0076,0.01775 -0.01172,0.02656 -0.0082,0.01763 -0.01707,0.03538 -0.02617,0.05312 -0.0091,0.01774 -0.01886,0.03537 -0.02891,0.05313 -0.005,0.0089 -0.01004,0.018 -0.01523,0.02695 -0.0052,0.0089 -0.01056,0.01771 -0.01602,0.02656 -0.01091,0.01769 -0.02225,0.03518 -0.03398,0.05273 -0.01173,0.01755 -0.02383,0.03502 -0.03633,0.05234 -0.0125,0.01731 -0.02545,0.03456 -0.03867,0.05156 -0.01322,0.017 -0.02674,0.03379 -0.04063,0.05039 -0.0139,0.0166 -0.02806,0.03311 -0.04258,0.04922 -0.01452,0.01612 -0.02944,0.03173 -0.04453,0.04727 -0.01509,0.01554 -0.03047,0.03082 -0.04609,0.0457 -0.01562,0.01488 -0.03157,0.02961 -0.04766,0.04375 -0.0161,0.01415 -0.03231,0.0277 -0.04883,0.04102 -0.0083,0.0067 -0.01668,0.01308 -0.025,0.01953 -0.0083,0.0065 -0.01655,0.01294 -0.025,0.01914 -0.02011,0.0147 -0.04044,0.02893 -0.06055,0.04297 -0.02012,0.01404 -0.04004,0.02765 -0.06016,0.04102 -0.02013,0.01337 -0.04041,0.02675 -0.06055,0.03945 -0.02014,0.0127 -0.04039,0.02508 -0.06055,0.03711 -0.02017,0.01204 -0.04035,0.0234 -0.06055,0.03477 -0.0202,0.01137 -0.04031,0.0225 -0.06055,0.0332 -0.02024,0.0107 -0.04065,0.02122 -0.06094,0.03125 -0.02029,0.01004 -0.0406,0.01951 -0.06094,0.02891 -0.02035,0.0094 -0.04053,0.01864 -0.06094,0.02734 -0.02041,0.0087 -0.04085,0.017 -0.06133,0.025 -0.02048,0.008 -0.04116,0.01565 -0.06172,0.02305 -0.02056,0.0074 -0.04107,0.01439 -0.06172,0.02109 -0.02065,0.0067 -0.04137,0.01314 -0.06211,0.01914 -0.02074,0.006 -0.04126,0.0114 -0.06211,0.0168 -0.02085,0.0053 -0.04193,0.01053 -0.06289,0.01523 -0.02096,0.0047 -0.04182,0.0089 -0.06289,0.01289 -0.02107,0.004 -0.04247,0.008 -0.06367,0.01133 -0.0212,0.0034 -0.04233,0.0063 -0.06367,0.009 -0.02133,0.0026 -0.04258,0.005 -0.06406,0.007 -0.02147,0.002 -0.04321,0.0038 -0.06484,0.0051 -0.02162,0.0013 -0.04344,0.0025 -0.06523,0.0031 -0.02179,6.72e-4 -0.04368,7.8e-4 -0.06563,7.81e-4 -0.02196,2e-6 -0.0439,-1.13e-4 -0.06602,-7.81e-4 -0.02213,-6e-4 -0.04411,-0.0018 -0.06641,-0.0031 -0.02231,-0.0014 -0.0447,-0.0031 -0.06719,-0.0051 -0.0225,-0.002 -0.04528,-0.0043 -0.06797,-0.007 -0.02269,-0.0027 -0.04547,-0.0056 -0.06836,-0.009 -0.02289,-0.0033 -0.04603,-0.0069 -0.06914,-0.01094 -0.02311,-0.004 -0.0462,-0.0086 -0.06953,-0.01328 -0.02332,-0.0047 -0.04676,-0.0098 -0.07031,-0.01523 -0.02355,-0.0054 -0.0473,-0.0108 -0.07109,-0.0168 -0.02379,-0.006 -0.04745,-0.01244 -0.07148,-0.01914 0,0 0.0025,-0.0041 0.0078,-0.01211 0.0053,-0.008 0.01329,-0.01967 0.02383,-0.03477 0.01053,-0.01509 0.02377,-0.03367 0.03945,-0.05508 0.01568,-0.02142 0.03395,-0.04574 0.05469,-0.07266 0.01037,-0.01346 0.02119,-0.02751 0.03281,-0.04219 0.01162,-0.01468 0.02386,-0.0299 0.03672,-0.0457 0.01285,-0.01581 0.02615,-0.03239 0.04023,-0.04922 0.01408,-0.01682 0.02884,-0.03382 0.04414,-0.05156 0.0153,-0.01775 0.03115,-0.03613 0.04766,-0.05469 0.01651,-0.01856 0.03386,-0.03737 0.05156,-0.05664 0.01771,-0.01927 0.0358,-0.03909 0.05469,-0.05898 0.01889,-0.01989 0.03853,-0.03976 0.05859,-0.06016 0.02006,-0.0204 0.04088,-0.04131 0.06211,-0.06211 0.02122,-0.0208 0.04285,-0.04178 0.06523,-0.06289 0.02238,-0.02111 0.04522,-0.04235 0.06875,-0.06367 0.02353,-0.02131 0.04761,-0.04264 0.07227,-0.06406 0.02466,-0.02142 0.05,-0.04303 0.07578,-0.06445 0.02579,-0.02142 0.05201,-0.04274 0.07891,-0.06406 0.02689,-0.02132 0.05442,-0.04255 0.08242,-0.06367 0.028,-0.02111 0.05646,-0.04208 0.08555,-0.06289 0.01455,-0.0104 0.02928,-0.02058 0.04414,-0.03086 0.01486,-0.01028 0.02984,-0.02066 0.04492,-0.03086 0.01508,-0.0102 0.03035,-0.02039 0.0457,-0.03047 0.01536,-0.01008 0.03086,-0.02018 0.04649,-0.03008 0.01561,-0.0099 0.03137,-0.01989 0.04726,-0.02969 0.01589,-0.0098 0.0319,-0.01931 0.04805,-0.02891 0.01615,-0.0097 0.03242,-0.01941 0.04883,-0.02891 0.01641,-0.0095 0.03294,-0.01882 0.04961,-0.02813 0.01667,-0.0093 0.03346,-0.01824 0.05039,-0.02734 0.01693,-0.0091 0.03398,-0.01805 0.05117,-0.02695 0.01719,-0.0089 0.0345,-0.01786 0.05195,-0.02656 0.01745,-0.0087 0.03502,-0.01699 0.05273,-0.02539 0.01771,-0.0084 0.03555,-0.0168 0.05352,-0.025 0.01797,-0.0082 0.03608,-0.01632 0.0543,-0.02422 0.01822,-0.0079 0.03661,-0.01584 0.05508,-0.02344 0.01847,-0.0076 0.03714,-0.01487 0.05586,-0.02227 0.0234,-0.0092 0.04616,-0.01778 0.06836,-0.02578 0.0222,-0.008 0.04381,-0.01547 0.06484,-0.02227 0.02103,-0.0068 0.04146,-0.01276 0.06133,-0.01836 0.01987,-0.0056 0.03908,-0.01074 0.05781,-0.01524 0.01873,-0.0045 0.03708,-0.0087 0.05469,-0.01211 0.01761,-0.0034 0.03466,-0.0062 0.05117,-0.0086 0.0083,-0.0012 0.0163,-0.0025 0.02422,-0.0035 0.0079,-0.001 0.01572,-0.0016 0.02344,-0.0023 0.0077,-6.56e-4 0.01554,-0.0012 0.02305,-0.0016 0.0075,-3.66e-4 0.01469,-6e-4 0.02187,-7.81e-4 z" />
    <path
       id="path14948"
       style="display:inline;fill:#ffffff;fill-opacity:1;stroke-width:1.21892;stroke-dasharray:none"
       inkscape:label="box"
       inkscape:transform-center-x="-0.93998124"
       inkscape:transform-center-y="-0.52801185"
       d="m 8.6117187,22.327734 c -0.4195926,-0.002 -0.8659515,0.0166 -1.3636718,0.04883 -2.6532933,0.171863 -2.6531903,1.497916 -2.0121094,1.541796 0.3790412,0.02558 0.593294,0.05381 0.7066406,0.06719 0.095062,0.01102 0.1085442,-0.01358 0.1402344,-0.05625 0.026818,-0.03656 0.038937,-0.0913 0.052344,-0.124219 0.023153,-0.05973 -0.00343,-0.120595 -0.057031,-0.14375 -0.054847,-0.02438 -0.670313,-0.298831 -0.670313,-0.298831 0,0 3.3394474,-0.855697 7.4906255,1.155469 4.151177,2.011166 5.222204,4.623496 4.066796,5.908203 -1.155405,1.284709 -3.167339,1.926952 -5.65,1.369922 -0.04265,-1.755201 0.04258,-3.039844 0.04258,-3.039844 0,0 2.312076,-0.08525 2.911718,0.342578 0.51189,0.365666 0.211825,0.605828 -0.125781,0.748438 -0.05728,0.02438 -0.0634,0.130075 -0.01094,0.160546 0.478981,0.265718 0.860506,0.328037 1.206641,-0.09492 0.385138,-0.470492 0.813239,-2.483063 -3.894922,-2.355078 -0.08532,-0.812999 0.171676,-1.369811 -0.513281,-2.182813 -0.684956,-0.816655 -0.685156,2.223047 -0.685156,2.223047 0,0 -1.754928,0.256024 -3.2101565,1.284765 -1.4552275,1.027522 2.9957035,3.510547 2.9957035,3.510547 0,0 0.08543,1.112984 0.727734,1.242188 0.642301,0.127982 0.599609,-0.813281 0.599609,-0.813281 0,0 3.851459,1.112882 6.421875,-1.155469 2.566758,-2.270788 0.169314,-5.909074 -3.255468,-7.577734 -2.782636,-1.356782 -4.095438,-1.752707 -5.9136723,-1.761329 z m 11.1218753,5.253125 c -0.103759,0.0027 -0.205183,0.07129 -0.285547,0.232032 0,0 -0.214612,2.482764 -0.129297,4.023437 0.04386,0.643575 1.071484,0.770434 1.071484,0.129297 0,-0.642353 -0.04275,-3.210629 -0.129296,-3.725 -0.05865,-0.352792 -0.299073,-0.665713 -0.527344,-0.659766 z m -9.573828,1.175391 -0.08555,2.738672 c 0,0 -1.4550404,-0.599668 -2.267969,-1.327344 C 6.9921085,29.439905 7.2492392,29.310652 7.634375,29.226562 8.0207299,29.141243 9.5186857,28.75625 10.159766,28.75625 Z" />
  </g>
</svg>
